1 10 20
100 200 125
201 210 89
900 1000 174
48242 78574 351
17127 46972 324
1465 94664 351
9529 38497 324
26396 71588 340
68325 33081 340
25921 90038 351
9650 3385 262
24024 11532 282
19619 54851 340
35477 25314 311
47916 20362 324
9340 18528 279
56198 40744 340
73763 58757 335
29824 14567 308
2427 11707 268
48070 93566 351
10340 44131 324
19496 24059 282
73229 46083 340
91371 46346 351
58531 19997 340
44274 1960 324
83606 20391 351
45785 66348 340
71427 484 340
93417 89098 333
1791 41379 324
3051 55144 340
20214 90627 351
64444 33191 340
72428 9307 340
66020 21371 340
36279 14002 324
85501 40879 351
40152 83837 351
30802 98675 351
48310 83422 351
59091 7018 340
12039 45692 324
58342 62640 335
47388 65091 340
22645 24790 282
18786 50638 324
98947 86675 333
19927 87142 351
46333 39924 314
31663 50190 324
34215 39817 324
26271 10407 282
7468 84494 351
52302 66383 340
54878 55702 260
34742 96523 351
16238 88091 351
57960 21799 340
57445 47037 340
70338 7761 340
75955 92319 351
54236 56259 322
75958 43940 340
44654 24641 324
18739 15047 279
87349 38766 351
62917 28489 340
20017 47338 324
804 28753 308
91110 42968 351
33004 3587 308
33726 61744 340
55627 11077 340
35876 37158 262
78232 48062 351
20206 77784 351
283 2928 217
9099 7787 252
676 8698 262
8801 5230 262
1832 211 182
5604 2683 238
5256 493 238
4583 8268 262
7174 2041 262
3363 3318 181
7226 5708 262
1912 4567 238
9215 4961 262
1296 7821 262
6485 3488 262
81 5097 238
1896 5180 238
4276 6378 262
385 7853 262
7700 1197 262
7162 5141 262
7861 9415 260
5468 6927 262
8015 675 262
3268 1532 217
8737 7041 252
4716 5891 236
4419 7203 262
8982 7371 252
4591 6168 236
4442 9500 262
5345 5264 161
132 2012 182
1154 2146 182
5843 2680 238
6434 7280 257
8606 8099 234
889 16 179
5615 6049 218
6480 4038 262
5457 4429 210
871 6447 262
6639 9428 260
4743 2108 238
2513 8941 262
896332 254161 525
373380 342491 441
301149 852199 525
546767 753497 509
915972 567712 525
34262 981717 525
971231 416999 525
748706 165745 509
837055 772005 468
731430 896430 525
836277 893881 525
184735 379122 443
597942 314612 470
630631 703010 442
295572 559913 470
426657 732280 509
366772 651189 509
180416 512452 470
683644 491355 509
811629 752357 468
605853 636175 509
403185 586960 470
536790 657447 509
951847 179025 525
385041 570502 470
655393 329249 509
682310 152360 509
389088 860727 525
595019 421348 470
839112 303145 525
184990 618628 470
580054 746573 509
485288 199054 449
124486 107730 349
142406 642724 509
359026 69370 443
813934 937314 525
204424 260097 443
722580 660693 504
774711 607650 509
81705 77686 338
347182 656012 509
56831 995146 525
976093 468517 525
550068 545348 452
