.....................
----------------------------------------------------------------------
Ran 21 tests in 0.012s

OK
Name             Stmts   Miss Branch BrPart  Cover   Missing
------------------------------------------------------------
Collatz.py          48      0     26      0   100%
TestCollatz.py      89      0      0      0   100%
------------------------------------------------------------
TOTAL              137      0     26      0   100%
