1 10 20
100 200 125
201 210 89
900 1000 174
10 1 20
1 1 1
10 50 112
5 7 17
1 8 17
13 16 18
50 30 110
3 9 20
30 50 110
400 500 142
500 400 142
390 421 134
2263 132 183
132 918 179
918 33 179
33 2229 183
2229 2932 217
2932 2671 217
2671 2059 209
2059 2889 209
2889 366 209
366 744 171
744 545 171
545 1097 179
1097 1898 182
1898 365 182
365 2279 183
2279 2005 183
2005 881 182
881 2317 183
2317 261 183
261 2227 183
2227 1081 183
1081 1613 182
1613 1170 177
1170 2955 217
2955 241 217
241 2732 209
2732 945 209
945 612 179
612 2712 209
2712 350 209
350 2099 182
2099 2193 170
2193 392 182
392 775 171
775 1656 182
1656 1791 180
1791 948 182
948 462 179
462 792 171
792 145 171
145 2248 183
2248 1803 183
1803 1832 162
1832 2620 209
2620 206 209
206 2571 209
2571 1886 209
1886 961 182
961 2065 182
2065 1682 180
1682 947 182
947 56 179
56 2076 182
2076 2813 209
2813 504 209
504 379 142
379 1995 182
1995 931 182
931 570 179
570 1884 182
1884 581 182
581 2549 209
2549 71 209
71 2250 183
2250 1345 183
1345 747 182
747 1926 182
1926 2182 175
2182 1562 180
1562 1415 172
1415 881 182
881 348 179
348 385 126
385 1339 182
1339 2290 183
2290 2646 209
2646 1307 209
1307 399 182
399 1931 182
1931 381 182
381 2503 209
2503 2648 191
2648 1393 209
1393 2767 209
2767 620 209
620 755 171
755 2256 183
2256 422 183
422 746 171
746 2856 209
900 10000 262
10000 900 262
2500 9000 262
100000 100000 129
1 10 20
3 3 8
90 290 128
52108 28391 324
28391 52108 324
90 90 18
3098 1990 217
1990 3098 217
83947 53903 351
701898 293879 509
763738 477749 509
174700 25367 383
247068 256766 363
475746 487207 413
400343 660180 509
43472 237645 443
448579 645088 509
92737 489375 449
141306 16925 354
283722 571562 470
488206 575075 470
301067 288634 371
670114 380491 509
583620 436888 470
725069 30010 509
519099 159550 470
608688 277340 470
305776 736667 509
131410 57871 354
